5
Lattice="3.01361394 0 0 -1.50680697 2.60986614 0 0 0 30" size="1 1" sym_prec=0.3
Ti            0.0502495788        1.7026664362        6.4012824901
Ti            1.5574550389        0.8329336518        3.8538180611
C             0.0503266821       -0.0372445749        5.1746606190
O             1.5571287624        0.8328394808        7.4737393490
O             0.0506384269        1.7028843002        2.9307900754